<svg xmlns="http://www.w3.org/2000/svg" width="13" height="17" viewBox="0 0 13 17">
    <g fill="none" fill-rule="evenodd">
        <g>
            <g>
                <g>
                    <g>
                        <path fill="#000" d="M7.83 7.827c-.394.395-.853.704-1.365.92-.53.224-1.092.338-1.671.338-.58 0-1.142-.114-1.672-.338-.511-.216-.97-.525-1.364-.92-.395-.394-.704-.853-.92-1.364C.612 5.933.5 5.371.5 4.792c0-.58.113-1.142.337-1.671.217-.511.526-.97.92-1.364.395-.394.854-.704 1.365-.92C3.652.613 4.214.5 4.794.5c.58 0 1.142.113 1.671.337.512.216.97.526 1.365.92.394.394.704.853.92 1.364.224.53.338 1.092.338 1.67 0 .58-.114 1.143-.338 1.672-.216.511-.526.97-.92 1.364zm.539.17l.215-.278c.656-.85 1.003-1.861 1.003-2.927 0-.647-.126-1.275-.376-1.865-.242-.57-.587-1.083-1.028-1.523C7.743.964 7.23.618 6.66.376 6.069.126 5.44 0 4.794 0c-.648 0-1.275.127-1.866.376-.57.242-1.084.587-1.524 1.028-.44.44-.786.952-1.027 1.523C.127 3.517 0 4.145 0 4.792s.127 1.275.377 1.865c.24.57.587 1.083 1.027 1.524.44.44.953.785 1.524 1.027.59.25 1.218.376 1.866.376 1.064 0 2.075-.346 2.923-1l.278-.215 3.742 3.741c.05.05.116.078.187.078.07 0 .137-.028.186-.078.05-.05.078-.116.078-.186 0-.07-.028-.137-.078-.187L8.37 7.997z" transform="translate(-377 -250) translate(350 191) translate(27 59) translate(.406 2.438)"/>
                        <path stroke="#BCBCBC" d="M7.83 7.827c-.394.395-.853.704-1.365.92-.53.224-1.092.338-1.671.338-.58 0-1.142-.114-1.672-.338-.511-.216-.97-.525-1.364-.92-.395-.394-.704-.853-.92-1.364C.612 5.933.5 5.371.5 4.792c0-.58.113-1.142.337-1.671.217-.511.526-.97.92-1.364.395-.394.854-.704 1.365-.92C3.652.613 4.214.5 4.794.5c.58 0 1.142.113 1.671.337.512.216.97.526 1.365.92.394.394.704.853.92 1.364.224.53.338 1.092.338 1.67 0 .58-.114 1.143-.338 1.672-.216.511-.526.97-.92 1.364zm.539.17l.215-.278c.656-.85 1.003-1.861 1.003-2.927 0-.647-.126-1.275-.376-1.865-.242-.57-.587-1.083-1.028-1.523C7.743.964 7.23.618 6.66.376 6.069.126 5.44 0 4.794 0c-.648 0-1.275.127-1.866.376-.57.242-1.084.587-1.524 1.028-.44.44-.786.952-1.027 1.523C.127 3.517 0 4.145 0 4.792s.127 1.275.377 1.865c.24.57.587 1.083 1.027 1.524.44.44.953.785 1.524 1.027.59.25 1.218.376 1.866.376 1.064 0 2.075-.346 2.923-1l.278-.215 3.742 3.741c.05.05.116.078.187.078.07 0 .137-.028.186-.078.05-.05.078-.116.078-.186 0-.07-.028-.137-.078-.187L8.37 7.997z" transform="translate(-377 -250) translate(350 191) translate(27 59) translate(.406 2.438)"/>
                    </g>
                    <path stroke="#979797" stroke-width=".1" d="M0 0H13V16.25H0z" opacity=".01" transform="translate(-377 -250) translate(350 191) translate(27 59)"/>
                </g>
            </g>
        </g>
    </g>
</svg>
